module gitlab.lrz.de/projecthub/gql-api

go 1.18

require (
	github.com/99designs/gqlgen v0.17.2
	github.com/google/uuid v1.3.0
	github.com/lib/pq v1.10.4
	github.com/ory/kratos-client-go v0.9.0-alpha.3
	github.com/rs/cors v1.8.2
	github.com/vektah/gqlparser/v2 v2.4.1
)

require (
	github.com/agnivade/levenshtein v1.1.1 // indirect
	github.com/cpuguy83/go-md2man/v2 v2.0.1 // indirect
	github.com/golang/protobuf v1.5.2 // indirect
	github.com/gorilla/websocket v1.5.0 // indirect
	github.com/hashicorp/golang-lru v0.5.4 // indirect
	github.com/matryer/moq v0.2.7 // indirect
	github.com/mitchellh/mapstructure v1.4.3 // indirect
	github.com/russross/blackfriday/v2 v2.1.0 // indirect
	github.com/stretchr/testify v1.7.0 // indirect
	github.com/urfave/cli/v2 v2.4.0 // indirect
	golang.org/x/mod v0.6.0-dev.0.20220106191415-9b9b3d81d5e3 // indirect
	golang.org/x/net v0.0.0-20220325170049-de3da57026de // indirect
	golang.org/x/oauth2 v0.0.0-20220309155454-6242fa91716a // indirect
	golang.org/x/sys v0.0.0-20220330033206-e17cdc41300f // indirect
	golang.org/x/tools v0.1.10 // indirect
	golang.org/x/xerrors v0.0.0-20200804184101-5ec99f83aff1 // indirect
	google.golang.org/appengine v1.6.7 // indirect
	google.golang.org/protobuf v1.28.0 // indirect
	gopkg.in/yaml.v2 v2.4.0 // indirect
)
